{
    "index.download_fdroid": "TÉLÉCHARGEZ F-DROID",
    "index.introduction": "F-Droid est un catalogue [installable](https://f-droid.org/FDroid.apk) d'applications de logiciels libres et Open Source pour la plate-forme Android. Le client facilite la navigation, l'installation et le suivi des mises à jour sur votre appareil.",
    "index.screenshot": "Capture d'écran de l'application Android F-Droid",
    "index.title": "Qu’est-ce que F-Droid ?",
    "navigation.about": "Sur",
    "navigation.browse": "Feuilleter",
    "navigation.contribute": "Contribuer",
    "navigation.documentation": "Docs",
    "navigation.forum": "Forum",
    "navigation.issues": "Problèmes",
    "navigation.news": "Nouvelles",
    "sidebars.donate.bank_transfer_name": "Prénom",
    "sidebars.donate.heading": "Faire un don",
    "sidebars.donate.powered_by_donations": "F-Droid est alimenté par vos dons !",
    "sidebars.donate.via_bank_transfer": "Virement",
    "sidebars.last_updated.heading": "Dernière mise à jour",
    "sidebars.latest_packages.heading": "Dernières applications",
    "sidebars.news.heading": "Nouvelles"
}
