{
    "index": {
        "download_fdroid": "Descargar F-Droid", 
        "introduction": "F-Droid ye un catálogu [instalable](https://f-droid.org/FDroid.apk) d'aplicaciones FOSS (software llibre y de códigu abiertu) pa la plataforma Android. El cliente facilita restolar, instalar, y facer el siguimientu de los anovamientos nel to preséu.", 
        "screenshot": "Pantallazu de la app F-Droid", 
        "title": "¿Qué ye F-Droid?"
    }, 
    "navigation": {
        "about": "Tocante a", 
        "browse": "Restolar", 
        "contribute": "Contribuir", 
        "documentation": "Documentos", 
        "forum": "Foru", 
        "issues": "Problemes", 
        "news": "Noticies"
    }, 
    "sidebars": {
        "donate": {
            "bank_transfer_name": "Nome", 
            "heading": "Donar", 
            "powered_by_donations": "¡F-Droid caltiense coles tos donaciones!", 
            "via_bank_transfer": "Tresferencia bancaria", 
        }, 
        "last_updated": {
            "heading": "Últimu anovamientu"
        }, 
        "latest_packages": {
            "heading": "Últimes apps"
        }, 
        "news": {
            "heading": "Noticies"
        }
    }
}